counter.vcd
$date
     Aug 29, 2024       11:00:21
$end

$version
 SystemC 3.0.0-Accellera --- Aug 27 2024 22:31:33
$end

$timescale
     1 ps
$end

$scope module SystemC $end
$var wire    1  aaaaa  clock       $end
$var wire    1  aaaab  reset       $end
$var wire    1  aaaac  enable       $end
$var wire    3  aaaad  count [2:0]  $end
$upscope $end
$enddefinitions  $end

$comment
All initial values are dumped below at time 0 sec = 0 timescale units.
$end

$dumpvars
1aaaaa
0aaaab
0aaaac
b0 aaaad
$end

#5000
0aaaaa

#10000
1aaaaa
1aaaab
1aaaac
b1 aaaad

#15000
0aaaaa

#20000
1aaaaa
b10 aaaad

#25000
0aaaaa

#30000
1aaaaa
b11 aaaad

#35000
0aaaaa

#40000
1aaaaa
b100 aaaad

#45000
0aaaaa

#50000
1aaaaa
b101 aaaad

#55000
0aaaaa

#60000
1aaaaa
b110 aaaad

#65000
0aaaaa

#70000
1aaaaa
b111 aaaad

#75000
0aaaaa

#80000
1aaaaa
b0 aaaad

#85000
0aaaaa

#90000
1aaaaa
b1 aaaad

#95000
0aaaaa

#100000
1aaaaa
b10 aaaad

